…
For example, the lag() function is available in both dplyr and the base R stats package. If we wanted to explicitly tell R to use this function from the dplyr package, we could write dplyr::lag(). But that could be repetitive if we use that function multiple times in our data analysis.

Now with the conflicts_prefer() function from the conflicted package, you can tell R to use a specific function once, then forget about it for the rest of your analysis. For example,

library(conflicted)
conflicts_prefer(dplyr::lag)

## [conflicted] Will prefer dplyr::lag over any other package.

This will choose the lag() function from dplyr. For example, say we wanted to use it to lag the tree diameter measurement in the elm data set:

elm |> 
  mutate(DIA2 = lag(DIA))

## # A tibble: 333 × 9
##    STATUSCD  SPCD   DIA    HT CROWN_HEIGHT CROWN_DIAM_WIDE UNCOMP_CROWN_RATIO
##       <dbl> <dbl> <dbl> <dbl>        <dbl>           <dbl>              <dbl>
##  1        1   838   5      32         19.2              19                 60
##  2        1   838   5      25         11.3              11                 45
##  3        1   838   5.1    21          6.3              10                 30
##  4        1   838   5.1    27         18.9              13                 70
##  5        1   838   5.1    22         18.7               6                 85
##  6        1   838   5.1    27         18.9              11                 70
##  7        1   838   5.2    29         11.6              12                 40
##  8        1   838   5.2    20          7                 9                 35
##  9        1   838   5.2    18         17.8              12                 99
## 10        1   838   5.2    17          6                17                 35
## # ℹ 323 more rows
## # ℹ 2 more variables: CROWN_CLASS_CD <dbl>, DIA2 <dbl>
…
Then we could join this to the elm data set. What I love about join_by() is there’s no need to have the variable name the same in both data sets that you want to merge by. Note that the code indicating crown class is named CROWN_CLASS_CD in the elm data set and crown_code in the crown_class data set. It can be joined by expressing the double equal sign ==:

elm |>
  left_join(crown_class, join_by(CROWN_CLASS_CD == crown_code)) |> 
  select(DIA, HT, CROWN_CLASS_CD, CROWN_CLASS_NAME)

## # A tibble: 333 × 4
##      DIA    HT CROWN_CLASS_CD CROWN_CLASS_NAME
##    <dbl> <dbl>          <dbl> <chr>           
##  1   5      32              4 Not open grown  
##  2   5      25              5 Not open grown  
##  3   5.1    21              5 Not open grown  
##  4   5.1    27              3 Not open grown  
##  5   5.1    22              3 Not open grown  
##  6   5.1    27              5 Not open grown  
##  7   5.2    29              3 Not open grown  
##  8   5.2    20              4 Not open grown  
##  9   5.2    18              3 Not open grown  
## 10   5.2    17              3 Not open grown  
## # ℹ 323 more rows
…
I’m not sure how much this new technique will help in my analysis (and I’m wondering why the order of crown classes is different for both approaches), but it does make sense to keep the functions within the same call. This may be particularly useful if there are more operations happening after the grouping.

New function to split columns and rows

New functions are available to help separate columns and rows into multiple columns or rows. For example, say we have a variable in the elm data set that separates the diameter and height measurements with a comma:

elm |> 
  mutate(DIA_HT = paste0(DIA, ",", HT)) |> 
  select(DIA, HT, DIA_HT)

## # A tibble: 333 × 3
##      DIA    HT DIA_HT
##    <dbl> <dbl> <chr> 
##  1   5      32 5,32  
##  2   5      25 5,25  
##  3   5.1    21 5.1,21
##  4   5.1    27 5.1,27
##  5   5.1    22 5.1,22
##  6   5.1    27 5.1,27
##  7   5.2    29 5.2,29
##  8   5.2    20 5.2,20
##  9   5.2    18 5.2,18
## 10   5.2    17 5.2,17
## # ℹ 323 more rows

The separate_wider_delim() function separates columns into multiple one based on a delimiter. You can then rename the variables directly in the names = statement:

elm |> 
  mutate(DIA_HT = paste0(DIA, ",", HT)) |> 
  separate_wider_delim(DIA_HT, 
                       delim = ",",
                       names = c("DIA2", "HT2")) |> 
  select(DIA2, HT2)

## # A tibble: 333 × 2
##    DIA2  HT2  
##    <chr> <chr>
##  1 5     32   
##  2 5     25   
##  3 5.1   21   
##  4 5.1   27   
##  5 5.1   22   
##  6 5.1   27   
##  7 5.2   29   
##  8 5.2   20   
##  9 5.2   18   
## 10 5.2   17   
## # ℹ 323 more rows
…
