…
nytree <- nyfia$TREE %>% 
  filter(STATUSCD == 1 & DIA >= 5.0 & INVYR >= 2013)

Next, we can calculate the number of trees, basal area, and Lorey’s height for all New York plots. The PLT_CN variable records each plot identifier:

nyplot <- nytree %>% 
  mutate(ba_tree = (0.00545415*DIA^2)*TPA_UNADJ,
         lorey_num = (0.00545415*DIA^2)*ACTUALHT*TPA_UNADJ) %>% 
  group_by(PLT_CN) %>% 
  summarize(num_trees = n(),
            BA = sum(ba_tree),
            LOREY_HT = sum(lorey_num) / sum(ba_tree))
nyplot

## # A tibble: 3,224 × 4
##     PLT_CN num_trees     BA LOREY_HT
##      <dbl>     <int>  <dbl>    <dbl>
##  1 1.58e13        57 145.       59.7
##  2 1.58e13        29 121.       61.2
##  3 1.58e13        13  24.7      61.3
##  4 1.58e13        30 128.       66.6
##  5 1.58e13         6   9.69     43.2
##  6 1.58e13         6  24.6      65.2
##  7 1.58e13        26 147.       68.2
##  8 1.58e13        35  94.4      58.4
##  9 1.58e13        25  98.5      73.9
## 10 1.58e13        35 166.       63.5
## # … with 3,214 more rows
…
nyplot

## # A tibble: 3,224 × 7
##     PLT_CN num_trees     BA LOREY_HT ARITH_HT DOM_CODOM_HT LARGE_HT
##      <dbl>     <int>  <dbl>    <dbl>    <dbl>        <dbl>    <dbl>
##  1 1.58e13        57 145.       59.7     56.1         62.0     65.9
##  2 1.58e13        29 121.       61.2     50           60.6     71.2
##  3 1.58e13        13  24.7      61.3     58.1         60.4     65.7
##  4 1.58e13        30 128.       66.6     59.3         61.2     71.8
##  5 1.58e13         6   9.69     43.2     44           44.2     43  
##  6 1.58e13         6  24.6      65.2     56.2         74       60  
##  7 1.58e13        26 147.       68.2     62.8         71.4     70.7
##  8 1.58e13        35  94.4      58.4     54.9         60.6     65.4
##  9 1.58e13        25  98.5      73.9     68.1         75.6     81.2
## 10 1.58e13        35 166.       63.5     55.0         73.6     69.7
## # … with 3,214 more rows
…
