Five R packages every forest analyst should be using
…
Adding statements such as bySizeClass = TRUE allow you to group the output by diameter class:

tpa(ri_db, bySizeClass = TRUE) 

## # A tibble: 261 x 9
##     YEAR sizeClass    TPA   BAA TPA_SE BAA_SE nPlots_TREE nPlots_AREA     N
##    <dbl>     <dbl>  <dbl> <dbl>  <dbl>  <dbl>       <int>       <int> <int>
##  1  2005         1 231.    4.43  17.1   17.9           41          67    95
##  2  2005         3 108.    8.07  19.1   18.9           30          67    95
##  3  2005         5  58.4  11.3    7.75   7.86          62          67    95
##  4  2005         7  42.7  14.7    5.98   6.06          59          67    95
##  5  2005         9  27.6  14.8    7.50   7.57          57          67    95
##  6  2005        11  19.6  15.1    8.89   9.13          54          67    95
##  7  2005        13  11.4  12.0   12.7   12.5           40          67    95
##  8  2005        15   9.16 12.6   12.8   12.9           39          67    95
##  9  2005        17   3.73  6.45  20.4   20.7           20          67    95
## 10  2005        19   2.24  4.75  28.4   28.3           13          67    95
## # ... with 251 more rows
…
