…
The bootstraps() function from tidymodels performs the bootstrap resampling. We’ll ask it to resample from the tree data set a total of 500 times. We set apparent = TRUE to take one additional sample in the analysis, a requirement for some estimates that are produced after the sampling.

We use the map() function to create a data frame of modeling results, including the coefficients. This is stored in bio_boot:

set.seed(123)

bio_boot <-
  bootstraps(tree, times = 500, apparent = TRUE) %>%
  mutate(models = map(splits, ~ fit_fx(.x)), 
      coef_info = map(models, tidy))

bio_boot

## # Bootstrap sampling with apparent sample 
## # A tibble: 501 × 4
##    splits            id           models coef_info       
##    <list>            <chr>        <list> <list>          
##  1 <split [566/202]> Bootstrap001 <nls>  <tibble [2 × 5]>
##  2 <split [566/208]> Bootstrap002 <nls>  <tibble [2 × 5]>
##  3 <split [566/218]> Bootstrap003 <nls>  <tibble [2 × 5]>
##  4 <split [566/200]> Bootstrap004 <nls>  <tibble [2 × 5]>
##  5 <split [566/206]> Bootstrap005 <nls>  <tibble [2 × 5]>
##  6 <split [566/206]> Bootstrap006 <nls>  <tibble [2 × 5]>
##  7 <split [566/207]> Bootstrap007 <nls>  <tibble [2 × 5]>
##  8 <split [566/211]> Bootstrap008 <nls>  <tibble [2 × 5]>
##  9 <split [566/201]> Bootstrap009 <nls>  <tibble [2 × 5]>
## 10 <split [566/220]> Bootstrap010 <nls>  <tibble [2 × 5]>
## # … with 491 more rows
…
A more efficient way might be to extract the coefficients and store them in a data set named bio_coef:

bio_coef <- 
  bio_boot %>%
  select(-splits) %>%
  unnest(cols = c(coef_info)) %>%
  select(id, term, estimate) 

bio_coef

## # A tibble: 1,002 × 3
##    id           term  estimate
##    <chr>        <chr>    <dbl>
##  1 Bootstrap001 b0       -3.50
##  2 Bootstrap001 b1        2.85
##  3 Bootstrap002 b0       -3.27
##  4 Bootstrap002 b1        2.73
##  5 Bootstrap003 b0       -3.25
##  6 Bootstrap003 b1        2.73
##  7 Bootstrap004 b0       -3.27
##  8 Bootstrap004 b1        2.73
##  9 Bootstrap005 b0       -3.35
## 10 Bootstrap005 b1        2.79
## # … with 992 more rows
…
<img src="{{< blogdown/postref >}}index_files/figure-html/unnamed-chunk-17-1.png" width="672" />

Next, we can use the augment() function to obtain the fitted and residual values for each resampled data point. We’ll sample from 250 runs to limit some of our output:

boot_aug <- 
  bio_boot %>% 
  sample_n(250) %>% 
  mutate(augmented = map(models, augment)) %>% 
  unnest(augmented)

boot_aug

## # A tibble: 141,500 × 8
##    splits            id           models coef_i…¹  AG_DW ST_OB…² .fitted  .resid
##    <list>            <chr>        <list> <list>    <dbl>   <dbl>   <dbl>   <dbl>
##  1 <split [566/218]> Bootstrap061 <nls>  <tibble> 12.1      6.86   7.32   4.74  
##  2 <split [566/218]> Bootstrap061 <nls>  <tibble>  0.862    3.05   0.763  0.0987
##  3 <split [566/218]> Bootstrap061 <nls>  <tibble> 53.8     12.2   36.4   17.4   
##  4 <split [566/218]> Bootstrap061 <nls>  <tibble>  1.18     2.54   0.459  0.720 
##  5 <split [566/218]> Bootstrap061 <nls>  <tibble> 18.3     10.9   26.8   -8.53  
##  6 <split [566/218]> Bootstrap061 <nls>  <tibble>  8.66     6.86   7.32   1.34  
##  7 <split [566/218]> Bootstrap061 <nls>  <tibble> 20.9     11.4   30.4   -9.52  
##  8 <split [566/218]> Bootstrap061 <nls>  <tibble> 11.9      7.62   9.82   2.11  
##  9 <split [566/218]> Bootstrap061 <nls>  <tibble>  5.90     5.33   3.63   2.26  
## 10 <split [566/218]> Bootstrap061 <nls>  <tibble>  4.40     5.84   4.68  -0.283 
## # … with 141,490 more rows, and abbreviated variable names ¹​coef_info,
## #   ²​ST_OB_D_BH
…
